[gd_scene load_steps=2 format=3 uid="uid://wkdkdqjt70n1"]

[ext_resource type="PackedScene" uid="uid://sck6qsg5bblc" path="res://Tools/Droparea.tscn" id="1_t0sa3"]

[node name="Droparea" instance=ExtResource("1_t0sa3")]

[node name="ColorRect" type="ColorRect" parent="." index="0"]
layout_mode = 1
anchors_preset = 15
anchor_right = 1.0
anchor_bottom = 1.0
grow_horizontal = 2
grow_vertical = 2
color = Color(0.160784, 0.160784, 0.160784, 1)
