; Engine configuration file.
; It's best edited using the editor UI and not directly,
; since the parameters that go here are not all obvious.
;
; Format:
;   [section] ; section goes between []
;   param=value ; assign values to parameters

config_version=5

[application]

config/name="drag-and-drop-snap"
run/main_scene="res://Example/main.tscn"
config/features=PackedStringArray("4.1", "Mobile")
config/icon="res://icon.png"

[rendering]

renderer/rendering_method="mobile"
